{
	"$id": "root",
	"$schema": "http://json-schema.org/draft-07/schema#",
	"type": "array",
	"items": {
		"type": "object",
		"properties": {
			"number": {
				"type": "string"
			},
			"title": {
				"type": "string"
			},
			"image": {
				"type": "string"
			},
			"thumbnail": {
				"type": "string"
			},
			"brewery": {
				"type": "string"
			},
			"rating": {
				"type": "string"
			},
			"date": {
				"type": "string"
			},
			"breweries": {
				"type": "array",
				"items": {
					"type": "object",
					"properties": {
						"title": {
							"type": "string"
						},
						"slug": {
							"type": "string"

						}
					},
					"required": [
						"title",
						"slug"
					],
					"additionalProperties": true
				}
			},
			"slug": {
				"type": "string"
			}
		},
		"required": [
			"number",
			"title",
			"image",
			"thumbnail",
			"brewery",
			"rating",
			"date",
			"breweries",
			"slug"
		],
		"additionalProperties": true
	}
}
